ant.ant.2.3_il	ant.ant.2.3_il
ant.FI.31_il	ant.FI.31_il
ant.kg.5_il	ant.kg.5_il
ant.mar.24_il	ant.mar.24_il
ant.mar.50_il	ant.mar.50_il
ant.SG.11_il	ant.SG.11_il
ant.cz.3_il	ant.cz.3_il
ant.cz.33_il	ant.cz.33_il
ant.FI.1_il	ant.FI.1_il
ant.FI.32_il	ant.FI.32_il
ant.kg.7_il	ant.kg.7_il
ant.mar.25_il	ant.mar.25_il
ant.mar.51_il	ant.mar.51_il
ant.cz.4_il	ant.cz.4_il
ant.cz.34_il	ant.cz.34_il
ant.ant.1.1_il	ant.ant.1.1_il
ant.FI.2_il	ant.FI.2_il
ant.FI.33_il	ant.FI.33_il
ant.kg.8_il	ant.kg.8_il
ant.mar.26_il	ant.mar.26_il
ant.mar.52_il	ant.mar.52_il
ant.SG.12_il	ant.SG.12_il
ant.cz.16_il	ant.cz.16_il
ant.Cc.1_il	ant.Cc.1_il
ant.ant.1.2_il	ant.ant.1.2_il
ant.FI.3_il	ant.FI.3_il
ant.FI.34_il	ant.FI.34_il
ant.kg.9_il	ant.kg.9_il
ant.mar.27_il	ant.mar.27_il
ant.SG.1_il	ant.SG.1_il
ant.SG.13_il	ant.SG.13_il
ant.cz.17_il	ant.cz.17_il
ant.Cc.2_il	ant.Cc.2_il
ant.thong.4_il	ant.thong.4_il
ant.ant.1.3_il	ant.ant.1.3_il
ant.FI.4_il	ant.FI.4_il
ant.kg.1_il	ant.kg.1_il
ant.kg.10_il	ant.kg.10_il
ant.mar.45_il	ant.mar.45_il
ant.SG.2_il	ant.SG.2_il
ant.SG.14_il	ant.SG.14_il
ant.cz.18_il	ant.cz.18_il
ant.Cc.3_il	ant.Cc.3_il
ant.thong.5_il	ant.thong.5_il
ant.ant.2.1_il	ant.ant.2.1_il
ant.kg.2_il	ant.kg.2_il
ant.FI.5_il	ant.FI.5_il
ant.mar.7_il	ant.mar.7_il
ant.mar.46_il	ant.mar.46_il
ant.SG.3_il	ant.SG.3_il
ant.SG.15_il	ant.SG.15_il
ant.cz.19_il	ant.cz.19_il
ant.thong.1_il	ant.thong.1_il
ant.thong.6_il	ant.thong.6_il
ant.FI.12_il	ant.FI.12_il
ant.kg.3_il	ant.kg.3_il
ant.mar.8_il	ant.mar.8_il
ant.mar.47_il	ant.mar.47_il
ant.SG.4_il	ant.SG.4_il
ant.cz.1_il	ant.cz.1_il
ant.cz.31_il	ant.cz.31_il
ant.thong.2_il	ant.thong.2_il
ant.thong.7_il	ant.thong.7_il
ant.ant.2.2_il	ant.ant.2.2_il
ant.kg.4_il	ant.kg.4_il
ant.FI.13_il	ant.FI.13_il
ant.mar.9_il	ant.mar.9_il
ant.mar.48_il	ant.mar.48_il
ant.SG.5_il	ant.SG.5_il
ant.cz.2_il	ant.cz.2_il
ant.cz.32_il	ant.cz.32_il
ant.thong.3_il	ant.thong.3_il
ant.thong.8_il	ant.thong.8_il
ant.C.18_il	ant.C.18_il
ant.C.26_il	ant.C.26_il
ant.go.40_il	ant.go.40_il
ant.mq.4_il	ant.mq.4_il
ant.mq.12_il	ant.mq.12_il
ant.pat.3.2_il	ant.pat.3.2_il
ant.CH.4_il	ant.CH.4_il
ant.bou.3_il	ant.bou.3_il
ant.cam.17_il	ant.cam.17_il
ant.A.1_il	ant.A.1_il
ant.end.17_il	ant.end.17_il
ant.C.19_il	ant.C.19_il
ant.go.17_il	ant.go.17_il
ant.go.41_il	ant.go.41_il
ant.mq.5_il	ant.mq.5_il
ant.pat.1.1_il	ant.pat.1.1_il
ant.pat.3.3_il	ant.pat.3.3_il
ant.auc.1_il	ant.auc.1_il
ant.bou.4_il	ant.bou.4_il
ant.A.2_il	ant.A.2_il
ant.Sn.40_il	ant.Sn.40_il
ant.C.20_il	ant.C.20_il
ant.go.18_il	ant.go.18_il
ant.go.42_il	ant.go.42_il
ant.mq.6_il	ant.mq.6_il
ant.pat.1.2_il	ant.pat.1.2_il
ant.cp.1_il	ant.cp.1_il
ant.auc.2_il	ant.auc.2_il
ant.bou.5_il	ant.bou.5_il
ant.cam.18_il	ant.cam.18_il
ant.A.3_il	ant.A.3_il
ant.Sn.41_il	ant.Sn.41_il
ant.C.21_il	ant.C.21_il
ant.go.19_il	ant.go.19_il
ant.go.43_il	ant.go.43_il
ant.mq.7_il	ant.mq.7_il
ant.pat.1.3_il	ant.pat.1.3_il
ant.cp.2_il	ant.cp.2_il
ant.auc.3_il	ant.auc.3_il
ant.bou.6_il	ant.bou.6_il
ant.cam.19_il	ant.cam.19_il
ant.A.4_il	ant.A.4_il
ant.Sn.42_il	ant.Sn.42_il
ant.Sn.47_il	ant.Sn.47_il
ant.C.22_il	ant.C.22_il
ant.go.20_il	ant.go.20_il
ant.mq.1_il	ant.mq.1_il
ant.mq.8_il	ant.mq.8_il
ant.pat.2.1_il	ant.pat.2.1_il
ant.cp.3_il	ant.cp.3_il
ant.auc.4_il	ant.auc.4_il
ant.bou.7_il	ant.bou.7_il
ant.cam.20_il	ant.cam.20_il
ant.A.5_il	ant.A.5_il
ant.Sn.43_il	ant.Sn.43_il
ant.Sn.48_il	ant.Sn.48_il
ant.C.24_il	ant.C.24_il
ant.go.21_il	ant.go.21_il
ant.mq.2_il	ant.mq.2_il
ant.mq.9_il	ant.mq.9_il
ant.pat.2.2_il	ant.pat.2.2_il
ant.CH.1_il	ant.CH.1_il
ant.auc.5_il	ant.auc.5_il
ant.bou.8_il	ant.bou.8_il
ant.cam.21_il	ant.cam.21_il
ant.A.6_il	ant.A.6_il
ant.Sn.44_il	ant.Sn.44_il
ant.Sn.49_il	ant.Sn.49_il
ant.C.25_il	ant.C.25_il
ant.go.25_il	ant.go.25_il
ant.mq.10_il	ant.mq.10_il
ant.pat.2.3_il	ant.pat.2.3_il
ant.CH.2_il	ant.CH.2_il
ant.bou.1_il	ant.bou.1_il
ant.bou.9_il	ant.bou.9_il
ant.cam.22_il	ant.cam.22_il
ant.end.11_il	ant.end.11_il
ant.Sn.45_il	ant.Sn.45_il
ant.Sn.50_il	ant.Sn.50_il
ant.go.26_il	ant.go.26_il
ant.mq.3_il	ant.mq.3_il
ant.mq.11_il	ant.mq.11_il
ant.pat.3.1_il	ant.pat.3.1_il
ant.CH.3_il	ant.CH.3_il
ant.bou.2_il	ant.bou.2_il
ant.bou.10_il	ant.bou.10_il
ant.cam.23_il	ant.cam.23_il
ant.BP.t2_il	ant.BP.t2_il
ant.BP.t3_il	ant.BP.t3_il
ant.BP.t4_il	ant.BP.t4_il
ant.BP.t5_il	ant.BP.t5_il
ant.BP.t6_il	ant.BP.t6_il
ant.BP.t7_il	ant.BP.t7_il
ant.BP.t8_il	ant.BP.t8_il
